{
	"name": "Claim Wiki",
	"version": "2.0.1",
	"author": [
		"Alexia E. Smith",
		"Hydra Wiki Platform Team"
	],
	"license-name": "GPL-2.0-or-later",
	"descriptionmsg": "claimwiki_description",
	"type": "specialpage",
	"requires": {
		"MediaWiki": ">= 1.29.0",
		"extensions": {
			"DynamicSettings": ">= 3.0.0",
			"Echo": "*",
			"HydraCore": ">= 3.0.0",
			"SyncService": ">= 2.0.0"
		}
	},
	"GroupPermissions": {
		"user": {
			"claim_wiki": true
		},
		"bureaucrat": {
			"wiki_claims": true
		}
	},
	"AvailableRights": [
		"claim_wiki",
		"wiki_claims"
	],
	"SpecialPages": {
		"ClaimWiki": "SpecialClaimWiki",
		"WikiClaims": "SpecialWikiClaims"
	},
	"MessagesDirs": {
		"ClaimWiki": [
			"i18n"
		]
	},
	"ExtensionMessagesFiles": {
		"SpecialClaimWiki": "ClaimWiki.alias.php"
	},
	"AutoloadClasses": {
		"ClaimWikiHooks": "ClaimWiki.hooks.php",
		"SpecialClaimWiki": "specials/SpecialClaimWiki.php",
		"SpecialWikiClaims": "specials/SpecialWikiClaims.php",
		"WikiClaim": "classes/WikiClaim.php",
		"ClaimLogPager": "classes/ClaimLog.php",
		"ClaimLogEntry": "classes/ClaimLog.php",
		"EchoWikiClaimFormatter": "classes/EchoWikiClaimFormatter.php",
		"EchoWikiClaimPresentationModel": "classes/EchoWikiClaimPresentationModel.php",
		"TemplateClaimEmails": "templates/TemplateClaimEmails.php",
		"TemplateClaimWiki": "templates/TemplateClaimWiki.php",
		"TemplateWikiClaims": "templates/TemplateWikiClaims.php",
		"WikiGuardianEmailJob": "classes/jobs/WikiGuardianEmailJob.php"
	},
	"ResourceModules": {
		"ext.claimWiki.styles": {
			"styles": [
				"css/claimwiki.css"
			],
			"dependencies": [
				"ext.hydraCore.button.styles",
				"ext.hydraCore.pagination.styles"
			],
			"position": "top"
		},
		"ext.claimWiki.scripts": {
			"scripts": [
				"js/listSorter.js"
			],
			"position": "top"
		}
	},
	"ResourceFileModulePaths": {
		"localBasePath": "",
		"remoteExtPath": "ClaimWiki"
	},
	"callback": "ClaimWikiHooks::onRegistration",
	"Hooks": {
		"BeforeCreateEchoEvent": "ClaimWikiHooks::onBeforeCreateEchoEvent",
		"BeforePageDisplay": "ClaimWikiHooks::onBeforePageDisplay",
		"SkinBuildSidebar": "ClaimWikiHooks::onSkinBuildSidebar",
		"LoadExtensionSchemaUpdates": "ClaimWikiHooks::onLoadExtensionSchemaUpdates",
		"UserEffectiveGroups": "ClaimWikiHooks::onUserEffectiveGroups",
		"UserRights": "ClaimWikiHooks::onUserRights"
	},
	"config": {
		"SyncServices": {
			"value": [
				"WikiGuardianEmailJob"
			],
			"path": false,
			"descriptionmsg": "claimwiki-syncservices",
			"public": false,
			"merge_strategy": "array_merge"
		},
		"ClaimWikiEnabled": {
			"value": true
		},
		"ClaimWikiNumberOfQuestions": {
			"value": 4
		},
		"ClaimWikiEmailTo": {
			"value": null
		},
		"ClaimWikiEmailSignature": {
			"value": "The Wiki Team"
		},
		"ClaimWikiGuardianTotal": {
			"value": 1
		},
		"ClaimWikiEditThreshold": {
			"value": 5
		}
	},
	"manifest_version": 2
}
